{
  "Activate": "Activate",
  "Author": "Author",
  "Cancel": "Cancelar",
  "Character": "Personaje",
  "Configure": "Configurar",
  "Degrees": "Grados",
  "Default": "Default",
  "Delete": "Borrar",
  "Documentation": "Documentación",
  "Duplicate": "Duplicar",
  "GridUnits": "Cuadrículas",
  "Install": "Instalar",
  "Elevation": "Elevation",
  "Foundry Virtual Tabletop": "Foundry Virtual Tabletop",
  "File Path": "File Path",
  "Height": "Height",
  "Hidden": "Hidden,",
  "Name": " Nombre",
  "No": "No",
  "Notes": "Notes",
  "Preload": "Preload",
  "Token": "Token",
  "Path": "Path",
  "Packs": "Packs",
  "Permissions": "Permissions",
  "Pixels": "Píxeles",
  "Ratio": "Radio",
  "Rotation": "Rotación",
  "Save Changes": "Guardar Cambios",
  "Scale": "Escala",
  "Sheet": "Sheet",
  "System": "Sistema",
  "Type": "Tipo",
  "Uninstall": "Desinstalar",
  "Update": "Actualizar",
  "URL": "URL",
  "Width": "Ancho",
  "XCoord": "Coordenada X",
  "YCoord": "Coordenada Y",
  "Yes": "Si",

  "ACTOR.Title": "Directorio de Actores",
  "ACTOR.Create": "Crear Actor",
  "ACTOR.Search": "Buscar Actores",

  "CHAT.Clear": "Clear Chat Log",
  "CHAT.Export": "Export Chat Log",
  "CHAT.FlushTitle": "Flush Chat Log",
  "CHAT.FlushWarning": "<h3>Are you sure?</h3><p>All messages within the chat log will be deleted and cleared.</p>",
  "CHAT.Title": "Chat Log",
  "CHAT.To": "To",
  "CHAT.RollBlind": "Blind GM Roll",
  "CHAT.RollDefault": "Default Roll Mode",
  "CHAT.RollPublic": "Public Roll",
  "CHAT.RollPrivate": "Private GM Roll",
  "CHAT.RollSelf": "Self Roll",
  "CHAT.RollTables": "Rollable Tables",

  "COMBAT.Begin": "Comenzar Combate",
  "COMBAT.Create": "Crear Encuentro",
  "COMBAT.Delete": "Borrar Encuentro",
  "COMBAT.Encounter": "Encuentro",
  "COMBAT.EncounterPrevious": "Activate Previous Encounter",
  "COMBAT.EncounterNext": "Activate Next Encounter",
  "COMBAT.End": "End Combat",
  "COMBAT.InitiativeRoll": "Roll Initiative",
  "COMBAT.InitiativeReset": "Reset Initiative",
  "COMBAT.None": "Sin Encuentros Disponibles",
  "COMBAT.NotStarted": "Not Started",
  "COMBAT.Resource": "Tracked Resource",
  "COMBAT.ResourceHint": "Choose an attribute to track for each combatant.",
  "COMBAT.Round": "Combat Round",
  "COMBAT.RoundPrev": "Previous Round",
  "COMBAT.RoundNext": "Next Round",
  "COMBAT.RollNPC": "Roll NPCs",
  "COMBAT.RollAll": "Roll All",
  "COMBAT.Settings": "Opciones del Registro de Encuentros",
  "COMBAT.SettingsSave": "Guardar Opciones",
  "COMBAT.SkipDefeated": "Skip Defeated?",
  "COMBAT.SkipDefeatedHint": "Automatically bypass combatants marked as defeated?",
  "COMBAT.ToggleVis": "Toggle Visibility",
  "COMBAT.ToggleDead": "Mark Defeated",
  "COMBAT.TurnEnd": "Finalizar Turno",
  "COMBAT.TurnNext": "Siguiente Turno",
  "COMBAT.TurnPrev": "Anterior Turno",

  "COMPENDIUM.Name": "Compendium Name",
  "COMPENDIUM.Create": "Create Compendium",
  "COMPENDIUM.CreateHint": "Create a new Compendium pack in your current World.",
  "COMPENDIUM.Delete": "Delete Compendium",
  "COMPENDIUM.Type": "Entity Type",
  "COMPENDIUM.TypeHint": "Each Compendium pack contains a specific type of Entity.",
  "COMPENDIUM.MarkPublic": "Mark Public",
  "COMPENDIUM.MarkPrivate": "Mark Private",

  "CONTROLS.GroupBasic": "Controles Básicos",
  "CONTROLS.BasicSelect": "Select Tokens",
  "CONTROLS.TargetSelect": "Select Targets",
  "CONTROLS.BasicMeasure": "Measure Distance",
  "CONTROLS.GroupMeasure": "Herramientas de Medición",
  "CONTROLS.MeasureCircle": "Círculo",
  "CONTROLS.MeasureCone": "Cono",
  "CONTROLS.MeasureRect": "Rectángulo",
  "CONTROLS.MeasureRay": "Linea",
  "CONTROLS.MeasureClear": "Borrar Todo",
  "CONTROLS.GroupTile": "Celdas",
  "CONTROLS.TileSelect": "Seleccionar Celdas",
  "CONTROLS.TilePlace": "Colocar Celda",
  "CONTROLS.GroupDrawing": "Herramientas de Dibujo",
  "CONTROLS.DrawingSelect": "Seleccionar Dibujos",
  "CONTROLS.DrawingRect": "Dibujar Rectángulo",
  "CONTROLS.DrawingEllipse": "Dibujar Elipse",
  "CONTROLS.DrawingPoly": "Dibujar Polígono",
  "CONTROLS.DrawingFree": "Dibujar a Mano Alzada",
  "CONTROLS.DrawingText": "Texto",
  "CONTROLS.DrawingClear": "Borrar Dibujos",
  "CONTROLS.DrawingConfig": "Configurar Dibujos",
  "CONTROLS.GroupWall": "Herramientas para Muros",
  "CONTROLS.WallDraw": "Dibujar Muros",
  "CONTROLS.WallInvisible": "Muros Invisibles",
  "CONTROLS.WallTerrain": "Muros del Terreno",
  "CONTROLS.WallEthereal": "Muros Etereos",
  "CONTROLS.WallDoors": "Dibujar Puertas",
  "CONTROLS.WallSecret": "Puertas Secretas",
  "CONTROLS.WallClone": "Clonar Muros",
  "CONTROLS.WallClear": "Borrar Muros",
  "CONTROLS.GroupLighting": "Herramientas de Iluminación",
  "CONTROLS.LightDraw": "Dibujar Fuente de Luz",
  "CONTROLS.LightClear": "Borrar Luces",
  "CONTROLS.LightReset": "Resetear Niebla de Guerra",
  "CONTROLS.FOWResetTitle": "¿Resetear la Niebla de Guerra Explorada?",
  "CONTROLS.FOWResetDesc": "This will reset fog of war for this Scene for all players.",
  "CONTROLS.GroupSound": "Herramientas de Sonido Ambiental",
  "CONTROLS.SoundDraw": "Dibujar Sonido Ambiental",
  "CONTROLS.SoundClear": "Borrar Sonidos",
  "CONTROLS.GroupNotes": "Journal Notes",
  "CONTROLS.NoteSelect": "Select Notes",
  "CONTROLS.NoteToggle": "Toggle Notes Display",
  "CONTROLS.NoteClear": "Clear Notes",
  "CONTROLS.HeaderObjects": "Placeable Object Controls",
  "CONTROLS.HeaderCanvas": "Canvas Object Controls",
  "CONTROLS.HeaderGame": "Game Controls",
  "CONTROLS.HeaderToken": "Token Controls",
  "CONTROLS.HeaderWalls": "Walls Layer Controls (GM)",
  "CONTROLS.GameMenu": "Toggle Main Menu",
  "CONTROLS.GameClose": "Close Open Windows",
  "CONTROLS.GamePause": "Toggle Game Pause (GM)",
  "CONTROLS.CanvasCancel": "Cancel Pending Move",
  "CONTROLS.CanvasConfigure": "Configure Canvas Object (GM)",
  "CONTROLS.CanvasCopy": "Copy Canvas Elements (GM)",
  "CONTROLS.CanvasDelete": "Delete Selected Elements (GM)",
  "CONTROLS.CanvasMeasure": "Measure Distance with Ruler",
  "CONTROLS.CanvasWaypoint": "Place Measurement Waypoint",
  "CONTROLS.CanvasMove": "Move Object",
  "CONTROLS.CanvasNoSnap": "Bypass Snap-to-Grid Placement",
  "CONTROLS.CanvasPan": "Pan Canvas",
  "CONTROLS.CanvasPaste": "Paste Canvas Elements (GM)",
  "CONTROLS.CanvasReset": "Reset View",
  "CONTROLS.CanvasUndo": "Undo Canvas Operation",
  "CONTROLS.CanvasZoom": "Zoom Canvas",
  "CONTROLS.LeftClick": "Left Click",
  "CONTROLS.LeftClick2": "Double Left Click",
  "CONTROLS.LeftDrag": "Left-Click Drag",
  "CONTROLS.RightDrag": "Right-Click Drag",
  "CONTROLS.MouseWheel": "Mouse Wheel",
  "CONTROLS.DragDrop": "Drag and Drop",
  "CONTROLS.Instructions": "Este ventana detalla lals combinaciones de teclas y uso del ratón para controlar las diversas herramientas del entorno de Foundry Virtual Tabletop.",
  "CONTROLS.RightClick": "Right Click",
  "CONTROLS.Title": "Game Controls Reference",
  "CONTROLS.TokenCycle": "Cycle Controllable Tokens",
  "CONTROLS.TokenFace": "Face Direction",
  "CONTROLS.TokenHUD": "Token HUD",
  "CONTROLS.TokenHighlight": "Highlight Tokens",
  "CONTROLS.TokenPlace": "Place Token",
  "CONTROLS.TokenPlaceHidden": "Place Hidden Token (GM)",
  "CONTROLS.TokenKeyMove": "Keyboard Movement",
  "CONTROLS.TokenDiagMove": "Diagonal Movement",
  "CONTROLS.TokenMoveMeasure": "Move Along Measured Path",
  "CONTROLS.TokenRotateFast": "Rotate Token (Fast)",
  "CONTROLS.TokenRotateSlow": "Rotate Token (Slow)",
  "CONTROLS.TokenSet": "Modify Token Control Set",
  "CONTROLS.TokenSheet": "View Character Sheet",
  "CONTROLS.TokenWhileMeasure": "while measuring distance",
  "CONTROLS.WallChain": "Chain Wall Placement",
  "CONTROLS.WallSelectChain": "Select Chained Segments",

  "ENTITY.Actor": "Actor",
  "ENTITY.Item": "Item",
  "ENTITY.Scene": "Scene",
  "ENTITY.JournalEntry": "Journal Entry",
  "ENTITY.Playlist": "Audio Playlist",
  "ENTITY.Combat": "Combat Encounter",
  "ENTITY.ChatMessage": "Chat Message",
  "ENTITY.CreateNew": "Create New",
  "ENTITY.TypeHint": "Specify the type of Entity you would like to create",

  "EULA.Acknowledge": "Acknowledge Agreement",
  "EULA.Agree": "Agree",
  "EULA.AgreeHint": "I agree to these terms",

  "INVITATIONS.Copied": "Game invitation link copied to clipboard",
  "INVITATIONS.Instructions": "Share the below invitation links with users who you wish to have join your game. The local invitation link is for users on your local network while the internet link connects via internet on the configured port.",
  "INVITATIONS.Internet": "Internet",
  "INVITATIONS.Local": "Local Network",
  "INVITATIONS.Title": "Game Invitation Links",

  "ITEM.Create": "Create Item",
  "ITEM.Delete": "Delete Item",
  "ITEM.Search": "Search Items",
  "ITEM.ViewArt": "View Item Artwork",

  "HUD.ToggleVis": "Toggle Visibility State",
  "HUD.ToggleLock": "Toggle Locked State",
  "HUD.ToFront": "Bring to Front",
  "HUD.ToBack": "Send to Back",

  "JOURNAL.Search": "Search Journal Entries",
  "JOURNAL.Create": "Create Entry",

  "MACRO.Create": "Crear Macro",
  "MACRO.Delete": "Borrar Macro",
  "MACRO.DeleteConfirm": "<p><strong>¿Estás seguro?</strong> Esta macro será borrada permanentemente.</p>",
  "MACRO.Search": "Buscar Macros",
  "MACRO.AllowScripts": "Allow Script Macros",
  "MACRO.AllowScriptsHint": "Allow Users to create and use JavaScript macros.",

  "MENU.Reload": "Recargar Foundry VTT",
  "MENU.Logout": "Cerrar Sesión",
  "MENU.Players": "Configurar Jugadores",
  "MENU.Setup": "Regresar al Menú Principal",

  "MODMANAGE.Title": "Module Management",
  "MODMANAGE.Instructions": "Use this form to configure which Modules are active within your current World. Submitting changes to active modules will cause the current session to reload.",
  "MODMANAGE.Submit": "Save Module Settings",

  "PLAYERS.Title": "Jugadores",
  "PLAYERS.CharSelect": "Select Character",
  "PLAYERS.CharRelease": "Release Character",
  "PLAYERS.ConfigTitle": "Configuración del Jugador",
  "PLAYERS.PlayerColor": "Player Color",
  "PLAYERS.PlayerAvatar": "Avatar",
  "PLAYERS.PullToScene": "Pull To Scene",
  "PLAYERS.SaveConfig": "Guardar Configuración",
  "PLAYERS.ViewAvatar": "Ver Avatar",

  "PLAYLIST.Create": "Crear Lista de Reproducción",
  "PLAYLIST.Delete": "Borrar Lista de Reproducción",
  "PLAYLIST.Edit": "Editar Lista de Reproducción",
  "PLAYLIST.GlobalVolume": "Control de Sonido Global",
  "PLAYLIST.ModeDisabled": "Soundboard Only",
  "PLAYLIST.ModeSequential": "Reproducción en Orden",
  "PLAYLIST.ModeShuffle": "Aleatorizar Música",
  "PLAYLIST.ModeSimultaneous": "Simultaneous Playback",
  "PLAYLIST.Play": "Play Playlist",
  "PLAYLIST.SoundAdd": "Añadir Audio",
  "PLAYLIST.SoundEdit": "Editar",
  "PLAYLIST.SoundDelete": "Borrar",
  "PLAYLIST.SoundLoop": "Repetir",
  "PLAYLIST.SoundPlay": "Reproducir",
  "PLAYLIST.SoundPreload": "Precargar",
  "PLAYLIST.SoundVolume": "Volumen",
  "PLAYLIST.SoundStop": "Sound Stop",
  "PLAYLIST.Stop": "Stop Playlist",
  "PLAYLIST.VolPlaylist": "Listas de Reproducción",
  "PLAYLIST.VolAmbient": "Ambiental",
  "PLAYLIST.VolInterface": "Interfaz",

  "SCENES.Access" : "Acceso",
  "SCENES.AccessHint" : "Control permission to this scene and whether it appears in the navigation bar.",
  "SCENES.Accessibility" : "Permisos",
  "SCENES.AccessibilityGM" : "Solo el GM",
  "SCENES.AccessibilityAll" : "Todos los Jugadores",
  "SCENES.Activate": "Activar",
  "SCENES.AmbienceAtmosphere" : "Ambiente y Atmósfera",
  "SCENES.Appearance": "Apariencia",
  "SCENES.AppearanceHint": "Configura la imagen de fondo y las dimensiones del mapa principal de la escena.",
  "SCENES.AudioPlaylist": "Lista de Reproducción",
  "SCENES.AudioPlaylistHint": "Una Lista de Reproducción que empezará a reproducirse automaticamente cuando esta Escena se activa.",
  "SCENES.BackgroundColor" : "Color del Fondo",
  "SCENES.BackgroundImage" : "Imagen de Fondo",
  "SCENES.Configure": "Configurar",
  "SCENES.FogExplore" : "Fog Exploration",
  "SCENES.FogExploreHint" : "Track exploration progress in this scene, dispelling fog of war.",
  "SCENES.GlobalIllum" : "Global Illumination",
  "SCENES.GlobalIllumHint" : "Illuminate all areas of the Scene that a controlled Token has line of sight to observe.",
  "SCENES.GridColor" : "Color de la Cuadrícula",
  "SCENES.GridConfig" : "Cuadrícula",
  "SCENES.GridConfigHint" : "Configura las dimensiones de la cuadrícula, las cuales se usarán como medida simbólica para la escena.",
  "SCENES.GridDist" : "Distancia de la Cuadrícula ",
  "SCENES.GridUnits" : "Unidad de la Cuadrícula",
  "SCENES.GridOpacity" : "Opacidad de la Cuadrícula",
  "SCENES.GridType" : "Tipo de Cuadrícula",
  "SCENES.GridSize" : "Tamaño de la Cuadrícula",
  "SCENES.InitialView": "Punto de Inicio",
  "SCENES.InitialViewButton": "Capturar la Posición Actual",
  "SCENES.InitialViewHint": "Coloca la posición de la cámara la primera vez que se abre esta Escena.",
  "SCENES.Height" : "Alto",
  "SCENES.LightHeader" : "Iluminación y Visión",
  "SCENES.NavName" : "Nombre Alternativo",
  "SCENES.NavNameHint" : "Escribe un Nombre Alternativo que es el que verán los jugadores.",
  "SCENES.Notes": "Información de la Escena",
  "SCENES.Pixels" : "píxeles",
  "SCENES.Preload": "Preload Scene",
  "SCENES.SceneName": "Nombre de la Escena",
  "SCENES.ShowNav" : "Mostrar en la Barra de Navegación",
  "SCENES.ShiftHorz" : "Desplazamiento Horizontal",
  "SCENES.ShiftVert" : "Desplazamiento Vertical",
  "SCENES.TokenVision" : "Token Vision",
  "SCENES.TokenVisionHint" : "Restrict visibility within this Scene based on controlled Tokens and their vision.",
  "SCENES.ToggleNav": "Toggle Navigation",
  "SCENES.Units" : "unidades",
  "SCENES.Width" : "Ancho",
  "SCENES.WeatherEffect" : "Efecto Climático",
  "SCENES.WeatherEffectHint" : "Configura el efecto climático que tendrá esta Escena.",

  "SETTINGS.Configure": "Opciones Generales",
  "SETTINGS.ConfigureAV" : "Configurar Audio/Video",
  "SETTINGS.Controls": "Combinaciones de teclas",
  "SETTINGS.Docs": "Documentación",
  "SETTINGS.Invite": "Enlaces de invitación",
  "SETTINGS.Manage": "Administración de Módulos",
  "SETTINGS.Title": "Configuración de Opciones Generales",
  "SETTINGS.Update": "Actualización del Software",
  "SETTINGS.Logout": "Cerrar Sesión",
  "SETTINGS.Players": "Administración de jugadores",
  "SETTINGS.Reset": "Reset Defaults",
  "SETTINGS.Save": "Save Changes",
  "SETTINGS.Setup": "Regresar al Menú Principal",
  "SETTINGS.SettingsHeader": "Game Settings",
  "SETTINGS.DocsHeader": "Help Documentation",
  "SETTINGS.InviteHeader": "Game Invitation Links",
  "SETTINGS.Wiki": "Community Wiki Pages",
  "SETTINGS.LangN": "Language Preference",
  "SETTINGS.LangL": "Change the displayed language for Foundry Virtual Tabletop.",
  "SETTINGS.TrustUpN": "Allow Trusted Player Upload",
  "SETTINGS.TrustUpL": "Allow players with the Trusted permission level to upload images or audio files to the host server's public directory.",
  "SETTINGS.PDoorN": "Player Door Control",
  "SETTINGS.PDoorL": "Allow for players to interact with doors. If this option is disabled, door icons will be visible to denote that a door is present, but only GM users will be able to open or close them.",
  "SETTINGS.CBubN": "Enable Chat Bubbles",
  "SETTINGS.CBubL": "Configure whether or not chat bubbles will be displayed above Tokens for in-character and emote type chat messages.",
  "SETTINGS.CBubPN": "Pan to Token Speaker",
  "SETTINGS.CBubPL": "Configure whether to automatically pan the camera to a speaking token when it displays a chat bubble.",
  "SETTINGS.SMesgN": "Allow Secret Messages",
  "SETTINGS.SMesgL": "Allow for players to send whispered messages to each other that the Game-Master cannot see. If this is disabled, GM users will be able to see the content of whispers that players send to each other.",
  "SETTINGS.SoftSN": "Enable Soft Shadows",
  "SETTINGS.SoftSL": "Enable soft shadows for more beautiful dynamic lighting, or disable it for improved performance on machines with lower-end hardware.",
  "SETTINGS.CursorN": "Show Player Cursors",
  "SETTINGS.CursorL": "Display the position of player mouse cursors which illustrate where connected users are looking on the game canvas.",
  "SETTINGS.TabCore": "Core Settings",
  "SETTINGS.TabModule": "Module Settings",
  "SETTINGS.TabSystem": "System Settings",
  "SETTINGS.NoneCore": "No core settings were registered.",
  "SETTINGS.NoneModule": "No module settings were registered.",
  "SETTINGS.NoneSystem": "No system settings were registered.",

  "SETUP.ModuleInstall": "Install Module",
  "SETUP.Modules": "Add-on Modules",
  "SETUP.SystemInstall": "Install System",
  "SETUP.Systems": "Sistemas de Juego",
  "SETUP.Title": "Configuration and Setup",
  "SETUP.Update": "Update Software",
  "SETUP.UpdateAll": "Update All",
  "SETUP.UpdateCheck": "Check Update",
  "SETUP.UpdateCheckFor": "Check For Update",
  "SETUP.UpdateWarning": "Please carefully read the instructions before using core software updater.",
  "SETUP.UpdateInstructionsP1": "The Foundry Virtual Tabletop self-updater is used to update the core software version when new release keys are provided. This tool will automatically update your Foundry VTT installation if an available update exists. In order to unlock an update, you must provide a valid test access key shared through Patreon during the Beta test phases.",
  "SETUP.UpdateInstructionsP2": "Any custom content you have created within the public directory will be preserved during the update process, but creating a manual backup of critical content (like your worlds) is still advised as during the test phases there may be occasional bugs in the update process. Please take precautions around any content where data loss could be especially costly.",
  "SETUP.UpdateKey": "Update Key",
  "SETUP.UpdateKeyHint": "Provide an update access key to proceed.",
  "SETUP.UpdateTitle": "Update Core Software",
  "SETUP.Uninstall": "Uninstall",
  "SETUP.WorldCreate": "Crear Mundo",
  "SETUP.WorldEdit": "Editar Mundo",
  "SETUP.WorldLaunch": "Abrir Mundo",
  "SETUP.Worlds": "Mundos de Juego",
  "SETUP.RequireUpdate": "Requires Update",
  "SETUP.RequireSystem": "Requires System Update",
  "SETUP.RequireDep": "Requires Dependency",
  "SETUP.RequireCore": "Requires Core Update",

  "SHEETS.EntitySheetHint": "Override which sheet class you would like to use for this specific entity.",
  "SHEETS.TypeSheetHint": "Set the default sheet class used for this entity type (GM Only).",
  "SHEETS.Save": "Save Sheet Configuration",

  "SIDEBAR.CharArt": "View Character Artwork",
  "SIDEBAR.CollapseToggle": "Collapse or Expand",
  "SIDEBAR.Delete": "Delete",
  "SIDEBAR.DeleteConfirm": "<h3>Are you sure?</h3><p>This entity will be <strong>permanently deleted</strong>.</p>",
  "SIDEBAR.Duplicate": "Duplicate",
  "SIDEBAR.Export": "Export Data",

  "FOLDER.Clear": "Clear Folder",
  "FOLDER.Color": "Color de la Carpeta",
  "FOLDER.Create": "Crear Carpeta",
  "FOLDER.Collapse": "Cerrar Todas las Carpetas",
  "FOLDER.Delete": "Borrar Todo",
  "FOLDER.DeleteConfirm": "<h3>¿Estás seguro?</h3><p>Esta carpeta y todo su contenido será <strong>borrado permanentemente</strong> y no podrá ser recuperado.</p>",
  "FOLDER.Edit": "Editar Carpeta",
  "FOLDER.Name": "Nombre de la Carpeta",
  "FOLDER.Remove": "Borrar Carpeta",
  "FOLDER.RemoveConfirm": "<h3>¿Estás seguro?</h3><p>Esta carpeta será borrada y su contenido se moverá al directorio superior.</p>",
  "FOLDER.Update": "Update Folder",

  "SIDEBAR.Import": "Import Data",
  "SIDEBAR.Permissions": "Configure Permission",

  "SIDEBAR.SceneActivate":  "ActivateScene",
  "SIDEBAR.SceneConfig": "Configure Scene",
  "SIDEBAR.SceneCreate": "Crear Escena",
  "SIDEBAR.SceneNav": "Toggle Navigation",
  "SIDEBAR.SceneNotes": "Scene Notes",
  "SIDEBAR.SceneSearch": "Buscar Escenas",
  "SIDEBAR.TabChat": "Chat Log",
  "SIDEBAR.TabCombat": "Combat Tracker",
  "SIDEBAR.TabScenes": "Scenes Directory",
  "SIDEBAR.TabActors": "Actors Directory",
  "SIDEBAR.TabItems": "Items Directory",
  "SIDEBAR.TabJournal": "Journal Entries",
  "SIDEBAR.TabPlaylists": "Audio Playlists",
  "SIDEBAR.TabCompendium": "Compendium Packs",
  "SIDEBAR.TabSettings": "Game Settings",
  "SIDEBAR.TabTables": "Rollable Tables",
  "SIDEBAR.TokenArt": "View Token Artwork",
  "SIDEBAR.JumpPin": "Jump To Pin",

  "TABLE.AnimateSetting": "Animate Roll Tables?",
  "TABLE.AnimateSettingHint": "Configure whether to display a roulette-style animation when drawing from a Roll Table.",
  "TABLE.Create": "Create Table",
  "TABLE.DisplayRoll": "Display Roll to Chat?",
  "TABLE.Formula": "Roll Table Formula",
  "TABLE.Search": "Search Tables",
  "TABLE.SheetTitle": "Table Configuration",
  "TABLE.Normalize": "Normalize Result Weights",
  "TABLE.Replacement": "Draw with Replacement?",
  "TABLE.Reset": "Reset",
  "TABLE.ResultCreate": "Add New Result",
  "TABLE.ResultType": "Result Type",
  "TABLE.ResultDetails": "Result Details",
  "TABLE.ResultDelete": "Delete Result",
  "TABLE.ResultWeight": "Weight",
  "TABLE.ResultRange": "Range",
  "TABLE.Roll": "Roll",
  "TABLE.ToggleDrawn": "Toggle Drawn Status",
  "TABLE.Update": "Update",

  "TEMPLATE.ConeTypeSetting": "Cone Template Type",
  "TEMPLATE.ConeTypeSettingHint": "Choose how the area of effect for cone templates should be defined.",
  "TEMPLATE.ConeTypeFlat": "Flat",
  "TEMPLATE.ConeTypeRound": "Round",

  "TOKEN.Assign": "Assign Token",
  "TOKEN.CharActor": "Represented Actor",
  "TOKEN.CharDisposition": "Token Disposition",
  "TOKEN.CharInstructions": "Configure which Actor this Token is associated with.",
  "TOKEN.CharLink": "Link Actor Data",
  "TOKEN.CharNameplate": "Nombre",
  "TOKEN.CharShowNameplate": "Mostrar el Nombre",
  "TOKEN.ImageAlts": "Alternate Actor Tokens",
  "TOKEN.ImageInstructions": "Configure the Token image and its displayed size and scale.",
  "TOKEN.ImagePath": "Token Image Path",
  "TOKEN.MirrorX": "Invertir Horizontalmente",
  "TOKEN.PositionInstructions": "Configure the Token's position, orientation, and elevation.",
  "TOKEN.PositionLock": "Bloquear Rotación",
  "TOKEN.RandomImg": "Randomize Wildcard Images",
  "TOKEN.ResourceInstructions": "Configure the resource bars which are tracked for the Token.",
  "TOKEN.ResourceBar1A": "Bar 1 Attribute",
  "TOKEN.ResourceBar1D": "Bar 1 Data",
  "TOKEN.ResourceBar2A": "Bar 2 Attribute",
  "TOKEN.ResourceBar2D": "Bar 2 Data",
  "TOKEN.ResourceDisplay": "Display Bars",
  "TOKEN.Title": "Token Configuration",
  "TOKEN.TitlePrototype": "Prototype Token",
  "TOKEN.Update": "Update Token",
  "TOKEN.VisionInstructions": "Configure the vision capability and light emission of this Token.",
  "TOKEN.VisionHas": "Campo de Visión",
  "TOKEN.VisionBrightDist": "Bright Vision",
  "TOKEN.VisionBrightEmit": "Emit Bright",
  "TOKEN.VisionDimDist": "Dim Vision",
  "TOKEN.VisionDimEmit": "Emit Dim",
  "TOKEN.VisionLightAngle": "Emission Angle",
  "TOKEN.VisionSightAngle": "Sight Angle",
  "TOKEN.HOSTILE": "Hostile",
  "TOKEN.NEUTRAL": "Neutral",
  "TOKEN.FRIENDLY": "Friendly",

  "WALLS.Title": "Wall Configuration",
  "WALLS.TitleMany": "Wall Configuration [Multiple]",
  "WALLS.Instructions": "Customize how this wall segment restricts movement or senses.",
  "WALLS.Coordinates": "Wall Coordinates",
  "WALLS.Movement": "Movement Restrictions",
  "WALLS.Senses": "Perception Restriction",
  "WALLS.Direction": "Wall Direction",
  "WALLS.Door": "Is Door?",
  "WALLS.DoorState": "Door State",
  "WALLS.Submit": "Update Wall",

  "WORLD.DetailTab": "World Details",
  "WORLD.DescTab": "World Description",

  "WEBRTC.Title" : "Audio/Video Configuration",
  "WEBRTC.UnknownDevice" : "<Unknown Device>",
  "WEBRTC.VideoDevice" : "Video Capture Device",
  "WEBRTC.VideoDeviceNotes" : "Select which video capture device you wish to use, if any.",
  "WEBRTC.AudioDevice" : "Audio Capture Device",
  "WEBRTC.AudioDeviceNotes" : "Select which audio capture device you wish to use, if any.",
  "WEBRTC.AudioOutput" : "Audio Output Device",
  "WEBRTC.AudioOutputNotes" : "Select which audio output device you wish to use.",
  "WEBRTC.DisableVideoSource" : "Disable Sending Camera",
  "WEBRTC.DisableAudioSource" : "Disable Sending Audio",
  "WEBRTC.DisableAudioOutput" : "Disable Audio Output",
  "WEBRTC.DefaultSource" : "Default Device",
  "WEBRTC.UnavailableDevice" : "Unavailable Device (will use Default)",
  "WEBRTC.WebRTCServer" : "Choose Signalling Server",
  "WEBRTC.WebRTCServerURL" : "Signalling Server URL",
  "WEBRTC.FVTTSignalingServer" : "Foundry VTT",
  "WEBRTC.CustomSignalingServer" : "Custom Server",
  "WEBRTC.WebRTCServerUsername" : "Signalling Server Username",
  "WEBRTC.WebRTCServerPassword" : "Signalling Server Password",
  "WEBRTC.WebRTCTurnServer" : "Relay Server Configuration",
  "WEBRTC.TURNServerProvisioned" : "Provided by Signalling Server",
  "WEBRTC.CustomTURNServer" : "Custom Relay Server",
  "WEBRTC.WebRTCTURNURL" : "Relay Server URL",
  "WEBRTC.WebRTCTurnUsername" : "Relay Server Username",
  "WEBRTC.WebRTCTurnPassword" : "Relay Server Password",
  "WEBRTC.GeneralTab" : "General",
  "WEBRTC.DevicesTab" : "Devices",
  "WEBRTC.ServerTab" : "Server",
  "WEBRTC.GeneralTabNotGM" : "General Audio/Video Conferencing Settings can only be modified by the GM",
  "WEBRTC.AVMode" : "Audio/Video Conferencing Mode",
  "WEBRTC.AVModeNotes" : "Only a GameMaster user may change this setting, which will require Foundry VTT to reload.",
  "WEBRTC.WebrtcModeDisabled" : "Disabled",
  "WEBRTC.WebrtcModeAudioOnly" : "Audio Only",
  "WEBRTC.WebrtcModeVideoOnly" : "Video Only",
  "WEBRTC.WebrtcModeAudioVideo" : "Audio/Video Enabled",
  "WEBRTC.TooltipToggleVideo" : "Toggle video",
  "WEBRTC.TooltipConfigure" : "Configure Settings",
  "WEBRTC.TooltipDock" : "Send to Dock",
  "WEBRTC.TooltipPopout" : "Pop out",
  "WEBRTC.PTTKey": "Push-to-Talk/Mute Key",
  "WEBRTC.PTTKeyNotes": "Assign a keyboard key which, in PTT mode, enables voice while held. If not in PTT mode, the same key mutes while pressed.",
  "WEBRTC.VoiceMode": "Voice Broadcasting Mode",
  "WEBRTC.VoiceModeNotes": "Choose how your voice is broadcast in AV calls.",
  "WEBRTC.VoiceAlways": "Always Enabled",
  "WEBRTC.VoiceActivity": "Voice Activation",
  "WEBRTC.VoicePTT": "Push-to-Talk",

  "WEBRTC.TooltipAllowUserVideo" : "Allow User Video",
  "WEBRTC.TooltipBlockUserVideo" : "Block User Video",
  "WEBRTC.TooltipAllowUserAudio" : "Allow User Audio",
  "WEBRTC.TooltipBlockUserAudio" : "Block User Audio",
  "WEBRTC.TooltipEnableMyVideo" : "Enable Video",
  "WEBRTC.TooltipDisableMyVideo" : "Disable Video",
  "WEBRTC.TooltipEnableMyAudio" : "Enable Audio",
  "WEBRTC.TooltipDisableMyAudio" : "Mute Audio",
  "WEBRTC.TooltipMutePeers" : "Mute Others' Audio",
  "WEBRTC.TooltipUnmutePeers" : "Unmute Others' Audio",

  "WEBRTC.TooltipHidePlayers" : "Hide Players List",
  "WEBRTC.TooltipChangeSize" : "Cycle Video Size",
  "WEBRTC.CaptureWarningVideo" : "Unable to capture from your Audio devices; Sharing Video only",
  "WEBRTC.CaptureWarningAudio" : "Unable to capture from your Video devices; Sharing Audio only",
  "WEBRTC.CaptureErrorAudioVideo" : "Unable to capture from your Audio & Video devices",
  "WEBRTC.CaptureErrorVideo" : "Unable to capture from your Video devices",
  "WEBRTC.CaptureErrorAudio" : "Unable to capture from your Audio & Video devices",
  "WEBRTC.ConnectError" : "Error connection to Audio/Video Signalling Server",
  "WEBRTC.ConnectionLostWarning" : "Lost connection to the Audio/Video Signalling server. Trying to re-establish connection.",
  "WEBRTC.GenericError" : "WebRTC Error : ",
  "WEBRTC.NoSSLError": "You cannot use Audio/Video calls unless your Foundry VTT server is using SSL certificates. See the online documentation for instructions."
}
